^D:\ASF_WORKSPACE\PRO\ADF\ADF_PLATFORM\ADF_DEMO\EC_DEMO\MAINWINDOW.QRC
D:\ASF_WORKSPACE\PRO\ADF\ADF_PLATFORM\ADF_DEMO\EC_DEMO\IMG\ALARM.JPG
D:\ASF_WORKSPACE\PRO\ADF\ADF_PLATFORM\ADF_DEMO\EC_DEMO\IMG\ALARM_ACTIVE.JPG
D:\ASF_WORKSPACE\PRO\ADF\ADF_PLATFORM\ADF_DEMO\EC_DEMO\IMG\CACTIVE.PNG
D:\ASF_WORKSPACE\PRO\ADF\ADF_PLATFORM\ADF_DEMO\EC_DEMO\IMG\CUNACTIVE.PNG
D:\ASF_WORKSPACE\PRO\ADF\ADF_PLATFORM\ADF_DEMO\EC_DEMO\IMG\CUNDO.PNG
D:\ASF_WORKSPACE\PRO\ADF\ADF_PLATFORM\ADF_DEMO\EC_DEMO\IMG\DATA.JPG
D:\ASF_WORKSPACE\PRO\ADF\ADF_PLATFORM\ADF_DEMO\EC_DEMO\IMG\DATA_ACTIVE.JPG
D:\ASF_WORKSPACE\PRO\ADF\ADF_PLATFORM\ADF_DEMO\EC_DEMO\IMG\EXCEL.JPG
D:\ASF_WORKSPACE\PRO\ADF\ADF_PLATFORM\ADF_DEMO\EC_DEMO\IMG\HOME.JPG
D:\ASF_WORKSPACE\PRO\ADF\ADF_PLATFORM\ADF_DEMO\EC_DEMO\IMG\HOME_ACTIVE.JPG
D:\ASF_WORKSPACE\PRO\ADF\ADF_PLATFORM\ADF_DEMO\EC_DEMO\IMG\INNOREV.ICO
D:\ASF_WORKSPACE\PRO\ADF\ADF_PLATFORM\ADF_DEMO\EC_DEMO\IMG\INVALID.ICO
D:\ASF_WORKSPACE\PRO\ADF\ADF_PLATFORM\ADF_DEMO\EC_DEMO\IMG\LANGUAGEDISABLE.PNG
D:\ASF_WORKSPACE\PRO\ADF\ADF_PLATFORM\ADF_DEMO\EC_DEMO\IMG\LANGUAGEENABLE.PNG
D:\ASF_WORKSPACE\PRO\ADF\ADF_PLATFORM\ADF_DEMO\EC_DEMO\IMG\LOGIN.JPG
D:\ASF_WORKSPACE\PRO\ADF\ADF_PLATFORM\ADF_DEMO\EC_DEMO\IMG\LOGIN_ACTIVE.JPG
D:\ASF_WORKSPACE\PRO\ADF\ADF_PLATFORM\ADF_DEMO\EC_DEMO\IMG\LOGO.PNG
D:\ASF_WORKSPACE\PRO\ADF\ADF_PLATFORM\ADF_DEMO\EC_DEMO\IMG\PARAM.JPG
D:\ASF_WORKSPACE\PRO\ADF\ADF_PLATFORM\ADF_DEMO\EC_DEMO\IMG\PARAM_ACTIVE.JPG
D:\ASF_WORKSPACE\PRO\ADF\ADF_PLATFORM\ADF_DEMO\EC_DEMO\IMG\PAUSE.JPG
D:\ASF_WORKSPACE\PRO\ADF\ADF_PLATFORM\ADF_DEMO\EC_DEMO\IMG\PAUSE_ACTIVE_MAIN.JPG
D:\ASF_WORKSPACE\PRO\ADF\ADF_PLATFORM\ADF_DEMO\EC_DEMO\IMG\RESET-DISABLE.BMP
D:\ASF_WORKSPACE\PRO\ADF\ADF_PLATFORM\ADF_DEMO\EC_DEMO\IMG\RESET-ENABLE.BMP
D:\ASF_WORKSPACE\PRO\ADF\ADF_PLATFORM\ADF_DEMO\EC_DEMO\IMG\START.JPG
D:\ASF_WORKSPACE\PRO\ADF\ADF_PLATFORM\ADF_DEMO\EC_DEMO\IMG\START_ACTIVE_MAIN.JPG
D:\ASF_WORKSPACE\PRO\ADF\ADF_PLATFORM\ADF_DEMO\EC_DEMO\IMG\STOP.JPG
D:\ASF_WORKSPACE\PRO\ADF\ADF_PLATFORM\ADF_DEMO\EC_DEMO\IMG\STOP_ACTIVE_MAIN.JPG
D:\ASF_WORKSPACE\PRO\ADF\ADF_PLATFORM\ADF_DEMO\EC_DEMO\IMG\VALID.ICO
D:\ASF_WORKSPACE\PRO\ADF\ADF_PLATFORM\ADF_DEMO\EC_DEMO\IMG\VISION.JPG
D:\ASF_WORKSPACE\PRO\ADF\ADF_PLATFORM\ADF_DEMO\EC_DEMO\IMG\VISION_ACTIVE.JPG
D:\ASF_WORKSPACE\PRO\ADF\ADF_PLATFORM\ADF_DEMO\EC_DEMO\IMG\3.PNG
D:\ASF_WORKSPACE\PRO\ADF\ADF_PLATFORM\ADF_DEMO\EC_DEMO\IMG\21.ICO
D:\ASF_WORKSPACE\PRO\ADF\ADF_PLATFORM\ADF_DEMO\EC_DEMO\IMG\3.ICO
D:\ASF_WORKSPACE\PRO\ADF\ADF_PLATFORM\ADF_DEMO\EC_DEMO\IMG\211.ICO
D:\ASF_WORKSPACE\PRO\ADF\ADF_PLATFORM\ADF_DEMO\EC_DEMO\IMG\333.PNG
D:\ASF_WORKSPACE\PRO\ADF\ADF_PLATFORM\ADF_DEMO\EC_DEMO\IMG\LOG1O.PNG
D:\ASF_WORKSPACE\PRO\ADF\ADF_PLATFORM\ADF_DEMO\EC_DEMO\IMG\LOGO11.PNG
D:\ASF_WORKSPACE\PRO\ADF\ADF_PLATFORM\ADF_DEMO\EC_DEMO\IMG\ZDPC11.PNG
D:\ASF_WORKSPACE\PRO\ADF\ADF_PLATFORM\ADF_DEMO\EC_DEMO\IMG\ZDPC.PNG
